output.txt
PS C:\iverilog\bin> .\vvp.exe .\elevator_sim
VCD info: dumpfile elevator_wave.vcd opened for output.
---------------------------------------------------------------------------------------------------------------------------
Time(s)| CLK | SW_Fl | Opn | Cls | Floor | Door_Q (1=Opn) | Count | Door_LED (0=ON)
---------------------------------------------------------------------------------------------------------------------------
   0   |  0  |  00   |  0  |  0  |   0   |       0        |   0   |    0
   1   |  1  |  00   |  0  |  0  |   0   |       0        |   0   |    0
   2   |  0  |  00   |  0  |  0  |   0   |       0        |   0   |    0
   3   |  1  |  00   |  0  |  0  |   0   |       0        |   0   |    0
   4   |  0  |  00   |  0  |  0  |   0   |       0        |   0   |    0
   5   |  1  |  00   |  0  |  0  |   0   |       0        |   0   |    0
   6   |  0  |  00   |  0  |  0  |   0   |       0        |   0   |    0
   7   |  1  |  00   |  0  |  0  |   0   |       0        |   0   |    0
   8   |  0  |  00   |  0  |  0  |   0   |       0        |   0   |    0
   9   |  1  |  00   |  0  |  0  |   0   |       0        |   0   |    0
  10   |  0  |  00   |  0  |  0  |   0   |       0        |   0   |    0
  11   |  1  |  00   |  0  |  0  |   0   |       0        |   0   |    0
  12   |  0  |  00   |  0  |  0  |   0   |       0        |   0   |    0
  13   |  1  |  00   |  0  |  0  |   0   |       0        |   0   |    0
  14   |  0  |  00   |  0  |  0  |   0   |       0        |   0   |    0
  15   |  1  |  00   |  0  |  0  |   0   |       0        |   0   |    0
  16   |  0  |  00   |  0  |  0  |   0   |       0        |   0   |    0
  17   |  1  |  00   |  0  |  0  |   0   |       0        |   0   |    0
  18   |  0  |  00   |  0  |  0  |   0   |       0        |   0   |    0
  19   |  1  |  00   |  0  |  0  |   0   |       0        |   0   |    0
  20   |  0  |  00   |  0  |  0  |   0   |       0        |   0   |    0
  21   |  1  |  00   |  0  |  0  |   0   |       0        |   0   |    0
  22   |  0  |  00   |  0  |  0  |   0   |       0        |   0   |    0
  23   |  1  |  00   |  0  |  0  |   0   |       0        |   0   |    0
  24   |  0  |  00   |  0  |  0  |   0   |       0        |   0   |    0
  25   |  1  |  00   |  0  |  0  |   0   |       0        |   0   |    0
  26   |  0  |  00   |  0  |  0  |   0   |       0        |   0   |    0
  27   |  0  |  01   |  0  |  0  |   0   |       0        |   0   |    0
  27   |  1  |  01   |  0  |  0  |   1   |       1        |   0   |    1
  28   |  0  |  01   |  0  |  0  |   1   |       1        |   0   |    1
  29   |  1  |  01   |  0  |  0  |   1   |       1        |   1   |    1
  30   |  0  |  01   |  0  |  0  |   1   |       1        |   1   |    1
  31   |  1  |  01   |  0  |  0  |   1   |       1        |   2   |    1
  32   |  0  |  01   |  0  |  0  |   1   |       1        |   2   |    1
  33   |  1  |  01   |  0  |  0  |   1   |       0        |   0   |    0
  34   |  0  |  01   |  0  |  0  |   1   |       0        |   0   |    0
  35   |  1  |  01   |  0  |  0  |   1   |       0        |   0   |    0
  36   |  0  |  01   |  0  |  0  |   1   |       0        |   0   |    0
  37   |  1  |  01   |  0  |  0  |   1   |       0        |   0   |    0
  38   |  0  |  01   |  0  |  0  |   1   |       0        |   0   |    0
  39   |  1  |  01   |  0  |  0  |   1   |       0        |   0   |    0
  40   |  0  |  01   |  0  |  0  |   1   |       0        |   0   |    0
  41   |  1  |  01   |  0  |  0  |   1   |       0        |   0   |    0
  42   |  0  |  01   |  0  |  0  |   1   |       0        |   0   |    0
  43   |  1  |  01   |  0  |  0  |   1   |       0        |   0   |    0
  44   |  0  |  01   |  0  |  0  |   1   |       0        |   0   |    0
  45   |  1  |  01   |  0  |  0  |   1   |       0        |   0   |    0
  46   |  0  |  01   |  0  |  0  |   1   |       0        |   0   |    0
  47   |  1  |  01   |  0  |  0  |   1   |       0        |   0   |    0
  48   |  0  |  01   |  0  |  0  |   1   |       0        |   0   |    0
  49   |  1  |  01   |  0  |  0  |   1   |       0        |   0   |    0
  50   |  0  |  01   |  0  |  0  |   1   |       0        |   0   |    0
  51   |  1  |  01   |  0  |  0  |   1   |       0        |   0   |    0
  52   |  1  |  10   |  0  |  0  |   1   |       0        |   0   |    0
  52   |  0  |  10   |  0  |  0  |   1   |       0        |   0   |    0
  53   |  1  |  10   |  0  |  0  |   2   |       1        |   0   |    1
  54   |  0  |  10   |  0  |  0  |   2   |       1        |   0   |    1
  55   |  1  |  10   |  0  |  0  |   2   |       1        |   1   |    1
  56   |  0  |  10   |  0  |  0  |   2   |       1        |   1   |    1
  57   |  1  |  10   |  0  |  0  |   2   |       1        |   2   |    1
  58   |  0  |  10   |  0  |  0  |   2   |       1        |   2   |    1
  59   |  1  |  10   |  0  |  0  |   2   |       0        |   0   |    0
  60   |  0  |  10   |  0  |  0  |   2   |       0        |   0   |    0
  61   |  1  |  10   |  0  |  0  |   2   |       0        |   0   |    0
  62   |  0  |  10   |  0  |  0  |   2   |       0        |   0   |    0
  63   |  1  |  10   |  0  |  0  |   2   |       0        |   0   |    0
  64   |  0  |  10   |  0  |  0  |   2   |       0        |   0   |    0
  65   |  1  |  10   |  0  |  0  |   2   |       0        |   0   |    0
  66   |  0  |  10   |  0  |  0  |   2   |       0        |   0   |    0
  67   |  1  |  10   |  0  |  0  |   2   |       0        |   0   |    0
  68   |  0  |  10   |  0  |  0  |   2   |       0        |   0   |    0
  69   |  1  |  10   |  0  |  0  |   2   |       0        |   0   |    0
  70   |  0  |  10   |  0  |  0  |   2   |       0        |   0   |    0
  71   |  1  |  10   |  0  |  0  |   2   |       0        |   0   |    0
  72   |  0  |  10   |  0  |  0  |   2   |       0        |   0   |    0
  73   |  1  |  10   |  0  |  0  |   2   |       0        |   0   |    0
  74   |  0  |  10   |  0  |  0  |   2   |       0        |   0   |    0
  75   |  1  |  10   |  0  |  0  |   2   |       0        |   0   |    0
  76   |  0  |  10   |  0  |  0  |   2   |       0        |   0   |    0
  77   |  0  |  11   |  0  |  0  |   2   |       0        |   0   |    0
  77   |  1  |  11   |  0  |  0  |   3   |       1        |   0   |    1
  78   |  0  |  11   |  0  |  0  |   3   |       1        |   0   |    1
  79   |  1  |  11   |  0  |  0  |   3   |       1        |   1   |    1
  80   |  0  |  11   |  0  |  0  |   3   |       1        |   1   |    1
  81   |  1  |  11   |  0  |  0  |   3   |       1        |   2   |    1
  82   |  0  |  11   |  0  |  0  |   3   |       1        |   2   |    1
  83   |  1  |  11   |  0  |  0  |   3   |       0        |   0   |    0
  84   |  0  |  11   |  0  |  0  |   3   |       0        |   0   |    0
  85   |  1  |  11   |  0  |  0  |   3   |       0        |   0   |    0
  86   |  0  |  11   |  0  |  0  |   3   |       0        |   0   |    0
  87   |  1  |  11   |  0  |  0  |   3   |       0        |   0   |    0
  88   |  0  |  11   |  0  |  0  |   3   |       0        |   0   |    0
  89   |  1  |  11   |  0  |  0  |   3   |       0        |   0   |    0
  90   |  0  |  11   |  0  |  0  |   3   |       0        |   0   |    0
  91   |  1  |  11   |  0  |  0  |   3   |       0        |   0   |    0
  92   |  0  |  11   |  0  |  0  |   3   |       0        |   0   |    0
  93   |  1  |  11   |  0  |  0  |   3   |       0        |   0   |    0
  94   |  0  |  11   |  0  |  0  |   3   |       0        |   0   |    0
  95   |  1  |  11   |  0  |  0  |   3   |       0        |   0   |    0
  96   |  0  |  11   |  0  |  0  |   3   |       0        |   0   |    0
  97   |  1  |  11   |  0  |  0  |   3   |       0        |   0   |    0
  98   |  0  |  11   |  0  |  0  |   3   |       0        |   0   |    0
  99   |  1  |  11   |  0  |  0  |   3   |       0        |   0   |    0
 100   |  0  |  11   |  0  |  0  |   3   |       0        |   0   |    0
 101   |  1  |  11   |  0  |  0  |   3   |       0        |   0   |    0
 102   |  1  |  00   |  0  |  0  |   3   |       0        |   0   |    0
 102   |  0  |  00   |  0  |  0  |   3   |       0        |   0   |    0
 103   |  1  |  00   |  0  |  0  |   2   |       0        |   0   |    0
 104   |  0  |  00   |  0  |  0  |   2   |       0        |   0   |    0
 105   |  1  |  00   |  0  |  0  |   1   |       0        |   0   |    0
 106   |  0  |  00   |  0  |  0  |   1   |       0        |   0   |    0
 107   |  1  |  00   |  0  |  0  |   0   |       1        |   0   |    1
 108   |  0  |  00   |  0  |  0  |   0   |       1        |   0   |    1
 109   |  1  |  00   |  0  |  0  |   0   |       1        |   1   |    1
 110   |  0  |  00   |  0  |  0  |   0   |       1        |   1   |    1
 111   |  1  |  00   |  0  |  0  |   0   |       1        |   2   |    1
 112   |  0  |  00   |  0  |  0  |   0   |       1        |   2   |    1
 113   |  1  |  00   |  0  |  0  |   0   |       0        |   0   |    0
 114   |  0  |  00   |  0  |  0  |   0   |       0        |   0   |    0
 115   |  1  |  00   |  0  |  0  |   0   |       0        |   0   |    0
 116   |  0  |  00   |  0  |  0  |   0   |       0        |   0   |    0
 117   |  1  |  00   |  0  |  0  |   0   |       0        |   0   |    0
 118   |  0  |  00   |  0  |  0  |   0   |       0        |   0   |    0
 119   |  1  |  00   |  0  |  0  |   0   |       0        |   0   |    0
 120   |  0  |  00   |  0  |  0  |   0   |       0        |   0   |    0
 121   |  1  |  00   |  0  |  0  |   0   |       0        |   0   |    0
 122   |  0  |  00   |  0  |  0  |   0   |       0        |   0   |    0
 123   |  1  |  00   |  0  |  0  |   0   |       0        |   0   |    0
 124   |  0  |  00   |  0  |  0  |   0   |       0        |   0   |    0
 125   |  1  |  00   |  0  |  0  |   0   |       0        |   0   |    0
 126   |  0  |  00   |  0  |  0  |   0   |       0        |   0   |    0
 127   |  0  |  10   |  0  |  0  |   0   |       0        |   0   |    0
 127   |  1  |  10   |  0  |  0  |   1   |       0        |   0   |    0
 128   |  0  |  10   |  0  |  0  |   1   |       0        |   0   |    0
 129   |  1  |  10   |  0  |  0  |   2   |       1        |   0   |    1
 130   |  0  |  10   |  0  |  0  |   2   |       1        |   0   |    1
 131   |  1  |  10   |  0  |  0  |   2   |       1        |   1   |    1
 132   |  0  |  10   |  0  |  0  |   2   |       1        |   1   |    1
 133   |  1  |  10   |  0  |  0  |   2   |       1        |   2   |    1
 134   |  0  |  10   |  0  |  0  |   2   |       1        |   2   |    1
 135   |  1  |  10   |  0  |  0  |   2   |       0        |   0   |    0
 136   |  0  |  10   |  0  |  0  |   2   |       0        |   0   |    0
 137   |  1  |  10   |  0  |  0  |   2   |       0        |   0   |    0
 138   |  0  |  10   |  0  |  0  |   2   |       0        |   0   |    0
 139   |  1  |  10   |  0  |  0  |   2   |       0        |   0   |    0
 140   |  0  |  10   |  0  |  0  |   2   |       0        |   0   |    0
 141   |  1  |  10   |  0  |  0  |   2   |       0        |   0   |    0
 142   |  0  |  10   |  0  |  0  |   2   |       0        |   0   |    0
 143   |  0  |  11   |  0  |  0  |   2   |       0        |   0   |    0
 143   |  1  |  11   |  0  |  0  |   3   |       1        |   0   |    1
 144   |  0  |  11   |  0  |  0  |   3   |       1        |   0   |    1
 145   |  1  |  11   |  0  |  0  |   3   |       1        |   1   |    1
 146   |  1  |  11   |  0  |  1  |   3   |       0        |   0   |    0
 146   |  0  |  11   |  0  |  1  |   3   |       0        |   0   |    0
 147   |  1  |  11   |  0  |  1  |   3   |       0        |   0   |    0
 148   |  1  |  11   |  0  |  0  |   3   |       0        |   0   |    0
 148   |  0  |  11   |  0  |  0  |   3   |       0        |   0   |    0
 149   |  1  |  11   |  0  |  0  |   3   |       0        |   0   |    0
 150   |  0  |  11   |  0  |  0  |   3   |       0        |   0   |    0
 151   |  1  |  11   |  0  |  0  |   3   |       0        |   0   |    0
 152   |  0  |  11   |  0  |  0  |   3   |       0        |   0   |    0
 153   |  0  |  11   |  1  |  0  |   3   |       0        |   0   |    1
 153   |  1  |  11   |  1  |  0  |   3   |       0        |   1   |    1
 154   |  0  |  11   |  1  |  0  |   3   |       0        |   1   |    1
 155   |  1  |  11   |  1  |  0  |   3   |       0        |   2   |    1
 156   |  0  |  11   |  1  |  0  |   3   |       0        |   2   |    1
 157   |  1  |  11   |  1  |  0  |   3   |       0        |   3   |    1
 158   |  0  |  11   |  1  |  0  |   3   |       0        |   3   |    1
 159   |  0  |  11   |  0  |  0  |   3   |       0        |   0   |    0
 159   |  1  |  11   |  0  |  0  |   3   |       0        |   0   |    0
 160   |  0  |  11   |  0  |  0  |   3   |       0        |   0   |    0
 161   |  1  |  11   |  0  |  0  |   3   |       0        |   0   |    0
 162   |  0  |  11   |  0  |  0  |   3   |       0        |   0   |    0
 163   |  1  |  11   |  0  |  0  |   3   |       0        |   0   |    0
 164   |  0  |  11   |  0  |  0  |   3   |       0        |   0   |    0
 165   |  1  |  11   |  0  |  0  |   3   |       0        |   0   |    0
 166   |  0  |  11   |  0  |  0  |   3   |       0        |   0   |    0
 167   |  1  |  11   |  0  |  0  |   3   |       0        |   0   |    0
 168   |  0  |  11   |  0  |  0  |   3   |       0        |   0   |    0